S00-003: Rainbow Dream - 0 (0)
S00-004: Knight Rider - 1 (2)
S00-005: Poseidon - 2 (4)
S00-006: PARALLEL★PRISM - 3 (6)
S00-007: 千本桜 - 4 (8)
S00-008: シュガーソングとビターステップ - 5 (10)
S00-009: ピースサイン - 6 (12)
S00-010: Singin'☆Shine！ - 7 (14)
S00-020: MEMORiZE - 8 (16)
S00-021: illanai-assorted - 9 (18)
S00-023: ファティマ - 10 (20)
S00-024: Soldiers - 11 (22)
S00-025: Fight for the CORE feat. Daisuke - 12 (24)
S00-026: 回レ！雪月花 - 13 (26)
S00-027: エイリアンエイリアン - 14 (28)
S00-030: 砂の惑星 feat. 初音ミク - 15 (30)
S00-031: マトリョシカ - 16 (32)
S00-032: Let you DIVE! - 17 (34)
S01-001: Bad Apple!! feat. nomico - 18 (36)
S01-002: ナイト・オブ・ナイツ - 19 (38)
S01-003: かくしん的☆めたまるふぉ～ぜっ! - 20 (40)
S01-004: You Only Live Once - 21 (42)
S01-005: にめんせい☆ウラオモテライフ! - 22 (44)
S01-006: 徒花ネクロマンシー - 23 (46)
S01-008: HOT LIMIT - 180 (360)
S01-009: only my railgun - 24 (48)
S01-010: POP TEAM EPIC - 25 (50)
S01-011: ようこそジャパリパークへ - 26 (52)
S01-013: ゴーストルール - 27 (54)
S01-014: ロキ - 28 (56)
S01-015: 気まぐれメルシィ feat. 初音ミク - 29 (58)
S01-016: 太陽系デスコ - 30 (60)
S01-017: ウマーベラス - 31 (62)
S01-018: ただ君に晴れ - 32 (64)
S01-020: ないものねだり - 181 (362)
S01-021: 新宝島 - 33 (66)
S01-026: EXCITE - 34 (68)
S01-027: ギミチョコ!! - 35 (70)
S01-030: 初音ミクの消失 - 36 (72)
S01-031: リアル初音ミクの消失 - 37 (74)
S01-035: ウミユリ海底譚 - 38 (76)
S01-036: Seyana. ～何でも言うことを聞いてくれるアカネチャン～ - 39 (78)
S01-037: アカリがやってきたぞっ - 40 (80)
S01-041: フラジール - 41 (82)
S01-042: 劣等上等 - 42 (84)
S01-043: こんにちは、ARuFaです。 - 43 (86)
S01-044: ぼくの夢、メチャクソ無限湧き - 44 (88)
S01-045: Jägermeister - 45 (90)
S01-047: 『エキセントリック少年ボウイ』のテーマ - 46 (92)
S01-049: EZ DO DANCE -K.O.P. REMIX- - ??? (??????)
S01-050: What's this? - 47 (94)
S01-051: ルーンファクトリー４スペシャルより「この想いを乗せて」 - 48 (96)
S01-052: 集結の華々 - 49 (98)
S01-054: LEVATEiN feat. 野宮あゆみ - 50 (100)
S01-055: BIG HEAD BANGING - 51 (102)
S01-056: Quon - 52 (104)
S01-057: HELL FLAME - 53 (106)
S01-058: Gate One - 54 (108)
S01-059: Are You Ready - 55 (110)
S01-060: Over My Hand - 56 (112)
S01-061: Invisible Frenzy - 57 (114)
S01-062: ATARAX1A - 58 (116)
S01-063: Chariot - 59 (118)
S01-064: 13 Donkeys - 60 (120)
S01-065: ADAM - 61 (122)
S01-068: Exitium - 62 (124)
S01-069: Sunshine - 63 (126)
S01-070: Try again - 64 (128)
S01-071: Ever Free(Raw Edit) - 65 (130)
S01-072: BOOM! BOOM!! BOOM!!! - 66 (132)
S01-073: BLUE SKY feat. 野宮あゆみ - 67 (134)
S01-076: Sound Chimera - 68 (136)
S01-077: HiGHER - 69 (138)
S01-078: VOX Diamond - 70 (140)
S01-079: Jingle - 71 (142)
S01-080: Source of Creation - 72 (144)
S01-081: GRiDGALAXY - 73 (146)
S01-082: Blaze - 74 (148)
S01-083: Akareram - 75 (150)
S01-084: Galaxy Friends - 76 (152)
S01-085: jacaranda - 77 (154)
S01-086: Shiny Memory feat.Yukacco - 78 (156)
S01-087: While Shining feat.Yukacco - 79 (158)
S01-088: Nameless Story - 80 (160)
S01-089: TOMORROW - 81 (162)
S01-090: 五等分の気持ち - 82 (164)
S01-091: 残酷な天使のテーゼ - 83 (166)
S01-092: 輪廻転生 - 84 (168)
S01-093: 幸せになれる隠しコマンドがあるらしい - 85 (170)
S01-094: ゲームオーバー (feat. TORIENA) - 86 (172)
S01-095: ファッとして桃源郷 - 87 (174)
S01-097: The Light - 88 (176)
S01-098: AIAIAI (feat. 中田ヤスタカ) - 89 (178)
S01-099: 乙女解剖 - 90 (180)
S01-100: スクランブル交際 - 91 (182)
S01-101: Shining Harmony - 92 (184)
S01-102: ガンガン・ドンドン - 93 (186)
S01-104: conflict - 94 (188)
S01-105: BATTLE NO.1 - 95 (190)
S01-107: チルノのパーフェクトさんすう教室 - 96 (192)
S01-108: taboo tears you up 2017 - 97 (194)
S01-109: Hello, Morning - 98 (196)
S01-110: Pixel Galaxy - 99 (198)
S01-111: FREEDOM DiVE↓ - 100 (200)
S01-113: オドループ - 119 (238)
S01-114: ストライク・ザ・ブラッド - 120 (240)
S01-115: 燐廻 - 121 (242)
S01-116: Brain Power - 122 (244)
S01-117: CHECKER FLAG - 101 (202)
S01-118: 待チ人ハ来ズ。 - 102 (204)
S01-119: WARNING×WARNING×WARNING - 103 (206)
S01-121: Utopia feat. shully - 104 (208)
S01-122: Stratoliner - 105 (210)
S01-123: JINGLE DEATH - 106 (212)
S01-124: Raise Your Heart!! - 107 (214)
S01-125: SHINY DAYS - 108 (216)
S01-126: Over the sweat and tears - 109 (218)
S01-127: Honey Panic! - 110 (220)
S01-128: BLVST BEVT - 111 (222)
S01-203: U.S.A. - 123 (246)
S01-204: お願いマッスル - 182 (364)
S01-205: 青空のラプソディ - 124 (248)
S01-206: ダダダダ天使 - 125 (250)
S01-207: ロストワンの号哭 - 126 (252)
S01-208: いーあるふぁんくらぶ - 127 (254)
S01-209: 六兆年と一夜物語 - ??? (??????)
S01-210: 悪戯センセーション - 128 (256)
S01-211: Mami Mami Zone - 129 (258)
S01-212: Demon's Rave - 130 (260)
S01-213: Murasaki - 131 (262)
S01-214: Mazy Metroplex - 132 (264)
S01-215: ベースラインやってる？笑 - 133 (266)
S01-216: EU over Progress - 134 (268)
S01-217: ドラマツルギー - 135 (270)
S01-218: シャルル - 136 (272)
S01-219: サクリファイス - ??? (??????)
S01-221: セツナトリップ - 137 (274)
S01-222: カゲロウデイズ - 138 (276)
S01-224: ブリキノダンス - 139 (278)
S01-226: ケロ⑨Destiny - 140 (280)
S01-227: LOVE EAST - 141 (282)
S01-228: 天狗の落とし文 feat. ytr - 142 (284)
S01-229: 神寂 - 143 (286)
S01-230: GASHATT - 144 (288)
S01-231: LETHAL;WEAPON - 145 (290)
S01-232: Eyes on me feat. Such - 146 (292)
S01-236: ぼなぺてぃーと♡S - 148 (296)
S01-237: デタラメなマイナスとプラスにおけるブレンド考 - 149 (298)
S01-238: Bravely You - 150 (300)
S01-239: 進捗どうですか！ - ??? (??????)
S01-240: 進捗どうですか？ - ??? (??????)
S01-241: 進捗WARS feat．ビートまりお - ??? (??????)
S01-242: GOODWORLD - 151 (302)
S01-243: Altale - 152 (304)
S01-244: チュルリラ・チュルリラ・ダッダッダ！ - 153 (306)
S01-245: おばけのウケねらい - 154 (308)
S01-246: ベノム - 155 (310)
S01-247: Metamorphose - 185 (370)
S01-248: MAGiC4LG1RL M3GA S7R1KE! - ??? (??????)
S01-249: METEOR BURST - ??? (??????)
S01-250: XTREME - 156 (312)
S01-251: 天使光輪 - ??? (??????)
S01-254: ダンシング☆サムライ - 157 (314)
S01-255: WHITE - 158 (316)
S01-256: 恋メタル - 159 (318)
S01-258: Ultra Red - ??? (??????)
S01-259: サイクルヒット - 160 (320)
S01-260: 君のStarlight Road - 161 (322)
S01-261: 聖者の鼓動 - 162 (324)
S01-262: FUJIN Rumble - 163 (326)
S01-263: BUCHiGiRE Berserker - 164 (328)
S01-264: RAGE OF DUST - ??? (??????)
S01-265: ナイト・オブ・ナイツ (かめりあ’s“ワンス・アポン・ア・ナイト”Remix) - 165 (330)
S01-267: †DOOF†SENC† - ??? (??????)
S01-268: LOSE CONTROL - 168 (336)
S01-269: Shiny Smily Story - 169 (338)
S01-270: Dream☆Story - 170 (340)
S01-272: 天ノ弱 - 171 (342)
S01-273: without U - 172 (344)
S01-274: 風に乗せた願い - 173 (346)
S01-275: Strange Bar - 174 (348)
S01-276: ツアー・ファイナル - 175 (350)
S01-278: スマイル・アンド・ティアズ - 176 (352)
S01-279: STILL HOT IN MY HEART - 177 (354)
S02-001: 秒針を噛む - ??? (??????)
S02-002: ガヴリールドロップキック - 178 (356)
S02-003: This game - 193 (386)
S02-004: ポジティブ☆ダンスタイム - 194 (388)
S02-005: Gimme×Gimme feat. 初音ミク・鏡音リン - 195 (390)
S02-006: 39みゅーじっく！ - 196 (392)
S02-007: ゆけむり魂温泉 II - 197 (394)
S02-008: 明星ロケット - 198 (396)
S02-009: Calamity Fortune - 199 (398)
S02-010: Grayed Out-Antifront- - 200 (400)
S02-011: インドア系ならトラックメイカー - 201 (402)
S02-012: with U - 202 (404)
S02-013: Tell Me - 203 (406)
S02-014: THE MUZZLE FACING - 204 (408)
S02-015: SUPER REACTOR - 205 (410)
S02-016: ONOMATO Pairing!!! - 206 (412)
S02-017: GENOCIDER - 207 (414)
S02-019: ALiVE - 208 (416)
S02-021: ぺこみこ大戦争！！ - [209, 210] ([418, 420])
S02-023: キラメキライダー☆ - 211 (422)
S02-024: Say!ファンファーレ! - 212 (424)
S02-027: キラッとスタート (USAO Remix) - 213 (426)
S02-028: Make it！ (DJ Genki Remix) - 214 (428)
S02-029: ハート♥イロ♥トリドリ〜ム - 215 (430)
S02-030: Make it！ - 216 (432)
S02-031: キラッとスタート - 217 (434)
S02-032: アスノヨゾラ哨戒班 - 218 (436)
S02-033: ヒビカセ - 219 (438)
S02-034: 脳漿炸裂ガール - 220 (440)
S02-036: ARTEMiS - [147, 221] ([294, 442])
S02-037: パニックポップ☆フェスティバル!!! - 222 (444)
------ END KNOWN GOOD AUDIO ------

S02-040: Sweet Requiem - 223 (446)
S02-042: Help me, ERINNNNNN!! - 224 (448)
S02-043: マッチョアネーム？ - 225 (450)
S02-046: 猫娘 - 226 (452)
S02-047: Poppin' Shower - 227 (454)
S02-048: Stasis feat.motoko -WACCA EDiT-  - 228 (456)
S02-049: RAV#GIRL - 229 (458)
S02-053: フリーフォール - 230 (460)
S02-054: Liberate - 231 (462)
S02-055: Animosity - 232 (464)
S02-056: Big Bang - 233 (466)
S02-058: sister's noise - 234 (468)
S02-059: Fish Fight! - 235 (470)
S02-060: THERAPY - 236 (472)
S02-062: はげしこの夜 -Psylent Crazy Night- - 237 (474)
S02-065: ニュー・ウェーブ - 238 (476)
S02-066: 夢見る空へ - 239 (478)
S02-067: NEXT COLOR PLANET - 240 (480)
S02-068: HELLO to DREAM - 241 (482)
S02-069: over and over - 242 (484)
S02-070: KALACAKLA - 243 (486)
S02-071: From Zero feat. 利香 - 244 (488)
S02-072: PRESS START! - 245 (490)
S02-073: TWISTSTEP - 246 (492)
S02-074: Future Cαndy - 247 (494)
S02-075: シャカリキ・ファイト・ブンブン - 248 (496)
S02-076: ワールドイズマイン - 249 (498)
S02-077: ぼくらの16bit戦争 - 250 (500)
S02-078: 隔絶≡タナトス - 251 (502)
S02-079: Weg - 252 (504)
S02-080: Apocalypse - 253 (506)
S02-081: Rainmaker - 254 (508)
S02-082: You are the Miserable - 255 (510)
S02-083: Stasis - 256 (512)
S02-084: トロピカッ☆バケーション - 257 (514)
S02-088: Good Night, Bad Luck. - 258 (516)
S02-089: Got more raves? - 259 (518)
S02-090: グルーヴ・ザ・ハート - 260 (520)
S02-091: QiXiN MAdN3ss 2153 - 261 (522)
S02-092: ホイホイ☆幻想ホロイズム - 262 (524)
S02-202: なだめスかし Negotiation - 263 (526)
S02-203: 非実在系女子たちはどうすりゃいいですか？ - 264 (528)
S02-205: テレキャスタービーボーイ - 265 (530)
S02-206: Scream out! - 266 (532)
S02-207: MAGENTA POTION - 267 (534)
S02-208: Megaton Killer - 268 (536)
S02-209: ATAMA WARUI - 269 (538)
S02-210: LIN NE KRO NE - 270 (540)
S02-211: Lhaksha - 271 (542)
S02-212: SHAKE! - 272 (544)
S02-213: DUAL BREAKER XX - 273 (546)
S02-214: バレリーコ - 274 (548)
S02-215: フィクサー - 275 (550)
S02-216: だれかの心臓になれたなら - 276 (552)
S99-001: チュートリアル - 277 (554)
S99-002: MY ROOM TEST - 278 (556)
S99-003: SLIDE TEST - 279 (558)
S99-099: TAP TEST - 280 (560)